M48
;Layer_Color=9474304
;FILE_FORMAT=4:4
METRIC,LZ
;TYPE=PLATED
T1F00S00C0.6000
T2F00S00C0.6096
T3F00S00C0.7112
T4F00S00C0.9000
T5F00S00C1.5000
T6F00S00C3.0000
T7F00S00C3.1000
T8F00S00C4.0640
%
T01
X00524506Y00934506
X00518156Y0095
X00524379Y00965113
X00539873Y00971717
X00555621Y00965113
X00561844Y00949873
X00555367Y00934379
X0054Y00928029
X00784606Y01008126
X00778256Y0102362
X00784479Y01038733
X00799973Y01045337
X00815721Y01038733
X00821944Y01023493
X00815467Y01007999
X008001Y01001649
X01108456Y01008126
X01102106Y0102362
X01108329Y01038733
X01123823Y01045337
X01139571Y01038733
X01145794Y01023493
X01139317Y01007999
X0112395Y01001649
X01424379Y00965113
X01418156Y0095
X01424506Y00934506
X0144Y00928029
X01455367Y00934379
X01461844Y00949873
X01455621Y00965113
X01439873Y00971717
X0144Y01197229
X01455367Y01203579
X01461844Y01219073
X01455621Y01234313
X01439873Y01240917
X01424379Y01234313
X01418156Y012192
X01424506Y01203706
X01212977Y01274699
X0119761Y01268349
X01219454Y01290193
X01213231Y01305433
X01197483Y01312037
X01424506Y01549506
X01418156Y01565
X01424379Y01580113
X01439873Y01586717
X01455621Y01580113
X01461844Y01564873
X01455367Y01549379
X0144Y01543029
X01181989Y01305433
X01175766Y0129032
X01182116Y01274826
X00555367Y01549379
X0054Y01543029
X00524506Y01549506
X00518156Y01565
X00524379Y01580113
X00539873Y01586717
X00555621Y01580113
X00561844Y01564873
X00974506Y01614506
X00968156Y0163
X00974379Y01645113
X00989873Y01651717
X01005621Y01645113
X01011844Y01629873
X01005367Y01614379
X0099Y01608029
X01189506Y01614506
X01183156Y0163
X01189379Y01645113
X01189506Y01839506
X01183156Y01855
X01189379Y01870113
X01005621
X01011844Y01854873
X01005367Y01839379
X0099Y01833029
X00974506Y01839506
X00968156Y01855
X00974379Y01870113
X00989873Y01876717
X01204873
X01220621Y01870113
X01226844Y01854873
X01220367Y01839379
X01205Y01833029
X01204873Y01651717
X01220621Y01645113
X01226844Y01629873
X01220367Y01614379
X01205Y01608029
T02
X0057785Y009525
X0059436
X0061087
X0062738
X0064389
X006604
X0067691
X0069342
X0070993
X0072644
X0074295
X0075946
X0077597
X0079248
X0080899
X008255
X0084201
X0085852
X0101219Y0094742
X0102616
Y0093345
X0101219
X0138049
X0139446
Y0094742
X0138049
Y0100076
X0139446
Y0101473
X0138049
X014605Y0100965
Y0102616
Y0104267
Y0105918
Y0107569
Y010922
Y0110871
Y0112522
Y0114173
Y0115824
X0139446Y0122174
Y0123571
X0138049
Y0122174
X0142875Y0131699
X0144272
Y0133096
X0142875
Y014986
Y0151257
X0144272
Y014986
X0121793Y0146177
Y0138049
X012319
X0124587
Y0136652
X0125984
X0127381
Y0138049
X0125984
X012319Y0136652
X0121793
X0118872Y0138049
X0116078Y0146177
X0075565Y0141097
Y0131699
X0102362Y0161544
X0104013
X0105664
X0107315
X0108966
X0110617
X0112268
X0113919
X011557
X0117221
X0125222Y0175133
X0126873Y0179832
X0132715Y0179324
Y0180848
X0131064Y0184023
X0135382Y0183797
X0138049Y018542
X0139192Y0180213
Y0175133
X0145542
Y0186944
X0125222
X0132079Y0174499
T03
X0135763Y0161163
T04
X005842Y0102743
X006096
X00635
X006604
X006858
X007112
Y010975
X006858
X006604
X00635
X006096
X005842
X0059309Y011684
X0061849
X0064389
X0066929
X0069469
X0072009
X0074549
X0077089
X0076073Y0109855
X0078613
X0081153
X0083693
X0088646Y010975
X0091186
X0093726
X0096266
X0098806
X0101346
X010775Y0112649
X011029
X011283
X0094869Y011684
X0092329
X0089789
X0087249
X0084709
X0082169
X0079629
X0088646Y010287
X0091186
X0093726
X0096266
Y0097
X0093726
X0091186
X0088646
X0098806
X0101346
X0125
X012754
X013008
X013262
X013516
X01377
X0132588Y010287
X0130048
X0127508
X0124968
X0120396Y015371
Y015625
X011283Y015525
X011029
X010775
Y0148082
X011029
X011283
Y0140843
X011029
X010775
X010133Y0141605
X009879
X009625
Y0134366
X009879
X010133
Y0127254
X009879
X009625
X0089789
X0087249
X0084709
X0082169
X0079629
Y011938
X0082169
X0084709
X0087249
X0089789
X0092329
X0094869
X010775Y0119888
X011029
X011283
Y0126492
X011029
X010775
Y0133604
X011029
X011283
X008875Y013596
Y01385
Y014471
Y014725
Y015371
Y015625
X009625Y0156
X009879
X010133
Y0148844
X009879
X009625
X007925Y014725
Y014471
Y01385
Y013596
X0077089Y0127254
X007112
X006858
X006604
X00635
X006096
X005842
X0059309Y011938
X0061849
X0064389
X0066929
X0069469
X0072009
X0074549
X0077089
X0072Y014471
Y014725
X007925Y015371
Y015625
X0078359Y0167894
X0075819
X0073279
X0070739
X0068199
X0065659
X0063119
X0060579
X0058039
X0055499
X00554991Y0172593
X00580391
X00605791
X00631191
X00656591
X00681991
X00707391
X00732791
X00758191
X00783591
Y0175133
X00758191
X00732791
X00707391
X00681991
X00656591
X00631191
X00605791
X00580391
X00554991
X0055499Y0180213
X0058039
X0060579
X0063119
X0065659
X0068199
X0070739
X0073279
X0075819
X0078359
X0080899
X0083439
X0085979
X0088519
X0091059
X00910591Y0175133
Y0172593
X00885191
X00859791
X00834391
X00808991
Y0175133
X00834391
X00859791
X00885191
X0088519Y0167894
X0085979
X0083439
X0080899
X0091059
X0100076Y016892
Y017146
Y0174
X0106299Y017399
Y017145
Y016891
X0112395
Y017145
Y017399
X0118618
Y017145
Y016891
X0116078Y0180848
X0113538
X0110998
X0108458
X0105918
X0103378
X0129032Y0177419
X0131572
X0134112
X0136652
X0139192
X0141732
X0139192Y0171196
X0136652
X0134112
X0131572
Y0164719
X0134112
X0136652
X0139192
X0141732
X0129032
T05
X0136398Y0134112
Y0139192
X0055118Y0138303
Y0133223
Y0145161
Y0150241
T06
X0101346Y0114808
X0084325Y0141351
Y0150749
X00535Y012192
T07
X0054Y0095
X008001Y0102362
X0112395
X0144Y0095
Y012192
X0119761Y0129032
X0144Y01565
X0054
X0099Y0163
Y01855
X01205
X0127381Y0183797
X0125984Y01706906
X01205Y0163
X014478Y01706906
X0143383Y0183797
T08
X0136652Y0145669
Y0155067
X006477Y0145161
Y0135763
M30
