Added Component: Designator=J17(MECH_HOLE_Vias)
Add component. Clean all parameters for all variants
Added Component: Designator=J18(MECH_HOLE_Vias)
Add component. Clean all parameters for all variants
Added Component: Designator=J19(MECH_HOLE_Vias)
Add component. Clean all parameters for all variants
Added Component: Designator=J20(MECH_HOLE_Vias)
Add component. Clean all parameters for all variants
Added Component: Designator=P41(XH2.54_6P)
Add component. Clean all parameters for all variants
Add component (AddParameter): Name = "LatestRevisionDate"; Value = "17-Jul-2002"; VariantName = "[No Variations]"
Add component (AddParameter): Name = "LatestRevisionNote"; Value = "Re-released for DXP Platform."; VariantName = "[No Variations]"
Add component (AddParameter): Name = "Publisher"; Value = "Altium Limited"; VariantName = "[No Variations]"
Added Component: Designator=P42(3PIN_100MIL)
Add component. Clean all parameters for all variants
Add component (AddParameter): Name = "LatestRevisionDate"; Value = "17-Jul-2002"; VariantName = "[No Variations]"
Add component (AddParameter): Name = "LatestRevisionNote"; Value = "Re-released for DXP Platform."; VariantName = "[No Variations]"
Add component (AddParameter): Name = "Publisher"; Value = "Altium Limited"; VariantName = "[No Variations]"
Added Component: Designator=P43(3PIN_100MIL)
Add component. Clean all parameters for all variants
Add component (AddParameter): Name = "LatestRevisionDate"; Value = "17-Jul-2002"; VariantName = "[No Variations]"
Add component (AddParameter): Name = "LatestRevisionNote"; Value = "Re-released for DXP Platform."; VariantName = "[No Variations]"
Add component (AddParameter): Name = "Publisher"; Value = "Altium Limited"; VariantName = "[No Variations]"
Added Component: Designator=P44(3PIN_100MIL)
Add component. Clean all parameters for all variants
Add component (AddParameter): Name = "LatestRevisionDate"; Value = "17-Jul-2002"; VariantName = "[No Variations]"
Add component (AddParameter): Name = "LatestRevisionNote"; Value = "Re-released for DXP Platform."; VariantName = "[No Variations]"
Add component (AddParameter): Name = "Publisher"; Value = "Altium Limited"; VariantName = "[No Variations]"
Added Component: Designator=P45(3PIN_100MIL)
Add component. Clean all parameters for all variants
Add component (AddParameter): Name = "LatestRevisionDate"; Value = "17-Jul-2002"; VariantName = "[No Variations]"
Add component (AddParameter): Name = "LatestRevisionNote"; Value = "Re-released for DXP Platform."; VariantName = "[No Variations]"
Add component (AddParameter): Name = "Publisher"; Value = "Altium Limited"; VariantName = "[No Variations]"
Added Pin To Net: NetName=GND Pin=J17-1
Added Pin To Net: NetName=GND Pin=J18-1
Added Pin To Net: NetName=GND Pin=J19-1
Added Pin To Net: NetName=GND Pin=J20-1
Added Pin To Net: NetName=GND Pin=P41-6
Added Pin To Net: NetName=GND Pin=P42-3
Added Pin To Net: NetName=GND Pin=P43-3
Added Pin To Net: NetName=GND Pin=P44-3
Added Pin To Net: NetName=GND Pin=P45-3
Added Pin To Net: NetName=NetP41_2 Pin=P41-2
Added Pin To Net: NetName=NetP41_2 Pin=P42-1
Added Net: Name=NetP41_2
Added Pin To Net: NetName=NetP41_3 Pin=P41-3
Added Pin To Net: NetName=NetP41_3 Pin=P43-1
Added Net: Name=NetP41_3
Added Pin To Net: NetName=NetP41_4 Pin=P41-4
Added Pin To Net: NetName=NetP41_4 Pin=P44-1
Added Net: Name=NetP41_4
Added Pin To Net: NetName=NetP41_5 Pin=P41-5
Added Pin To Net: NetName=NetP41_5 Pin=P45-1
Added Net: Name=NetP41_5
Added Pin To Net: NetName=PWR Pin=P41-1
Added Pin To Net: NetName=PWR Pin=P42-2
Added Pin To Net: NetName=PWR Pin=P43-2
Added Pin To Net: NetName=PWR Pin=P44-2
Added Pin To Net: NetName=PWR Pin=P45-2
Added Net: Name=PWR
Added Member To Class: ClassName=External IO Boards Member=Component J17 Screw_hole
Added Member To Class: ClassName=External IO Boards Member=Component J18 Screw_hole
Added Member To Class: ClassName=External IO Boards Member=Component J19 Screw_hole
Added Member To Class: ClassName=External IO Boards Member=Component J20 Screw_hole
Added Member To Class: ClassName=External IO Boards Member=Component P41 Port_1
Added Member To Class: ClassName=External IO Boards Member=Component P42 Out
Added Member To Class: ClassName=External IO Boards Member=Component P43 Out
Added Member To Class: ClassName=External IO Boards Member=Component P44 Out
Added Member To Class: ClassName=External IO Boards Member=Component P45 Out
